<?xml version="1.0" encoding="utf-8"?>
<!-- Generator: Adobe Illustrator 25.2.0, SVG Export Plug-In . SVG Version: 6.00 Build 0)  -->
<svg version="1.1" id="Capa_1" xmlns="http://www.w3.org/2000/svg" xmlns:xlink="http://www.w3.org/1999/xlink" x="0px" y="0px"
	 viewBox="0 0 1417.3 1417.3" style="enable-background:new 0 0 1417.3 1417.3;" xml:space="preserve">
<style type="text/css">
	.st0{fill:#ACABB1;}
	.st1{fill:#898890;}
	.st2{fill:#CC7400;}
	.st3{fill:#AA6100;}
</style>
<g>
	
		<rect x="275.8" y="268.2" transform="matrix(0.7071 -0.7071 0.7071 0.7071 -145.5959 326.5992)" class="st0" width="91.4" height="141.7"/>
	
		<rect x="284" y="288" transform="matrix(0.7071 -0.7071 0.7071 0.7071 -165.4032 318.3948)" class="st1" width="35.3" height="141.7"/>
	<path class="st2" d="M395.6,327.7l980,980c23.9,23.9,23.6,63.1-1,86.5c-23.8,22.7-61.8,21.6-85.2-1.8L310.2,413.3
		c-4-4-4-10.4,0-14.4l3.1-3.1l64.6-64.6l3.1-3.1C385.1,323.7,391.6,323.7,395.6,327.7z"/>
	<path class="st3" d="M1313.3,1368.5L334.1,389.4c-4-4-4-10.4,0-14.4l-20.7,20.7l-3.1,3.1c-4,4-4,10.4,0,14.4l979.2,979.2
		c23.4,23.4,61.3,24.6,85.2,1.8c4.7-4.5,8.5-9.4,11.3-14.7C1362.7,1392.1,1332.8,1388.1,1313.3,1368.5z"/>
	<path class="st0" d="M665.6,5.5c-76.7,4.3-333.3,157.7-334.8,228.8l-66.3,37l-42.2-29.4l35.5-80.6l0,0
		C356.2,62.9,514-3.7,665.6,5.5z"/>
	<g>
		<path class="st1" d="M665.6,5.5C591.8,16,338.1,173.5,330.8,234.2l-23.1-23.1l-4.1-4.1c3-6.5,4.8-10.5,5.2-11.3
			C338.4,132,592-7.8,665.6,5.5z"/>
		<path class="st1" d="M131.3,256.3l90,22.5l15.5,82.9l-2.5,3.6c-14.4-7.2-34.9-2.8-49.6,12c-14.6,14.6-19.1,34.9-12.1,49.3
			l-1.5,0.8l-78.3-16l-27.2-89.5l0.8-1.7c14.4,6.8,34.4,2.3,48.9-12.3c14.7-14.7,19.2-35.1,11.9-49.7L131.3,256.3z"/>
	</g>
	<path class="st0" d="M66.4,320.2l-0.8,1.7l105.4,105.4l1.5-0.8c1.3,2.8,3.1,5.4,5.3,7.6L123.1,489L3.5,369.4l54.8-54.8
		C60.7,317,63.5,318.8,66.4,320.2z"/>
	<path class="st1" d="M177.9,434.2L123.1,489L88,453.9l54.8-54.8C143.5,399.7,177.4,433.4,177.9,434.2z"/>
	<path class="st0" d="M219.5,153.5c8.5-8.5,22.1-8.5,30.6,0l7.7,7.7l49.9,49.9l23.1,23.1l8.3,8.3c8.5,8.5,8.5,22.1,0,30.6l-9.4,9.4
		l0,0L265,347l0,0l-23.4,23.4c-2.2-2.2-4.7-3.9-7.3-5.2l2.5-3.6L131.4,256.2l-4,2.1c-1.3-2.7-3-5.1-5.2-7.3L219.5,153.5z"/>
	<path class="st1" d="M991.2,1017.6l-16.4,16.4c-4.9,4.9-12.8,4.8-17.7,0L334.8,411.7c-4.9-4.9-4.8-12.8,0-17.7l16.4-16.4
		c4.9-4.9,12.8-4.8,17.7,0l622.3,622.3C996.1,1004.8,996.1,1012.7,991.2,1017.6z"/>
	<path class="st0" d="M1017,991.8l-25.1,25.1c-4.9,4.9-12.8,4.8-17.7,0L351.9,394.6c-4.9-4.9-4.8-12.8,0-17.7l25.1-25.1
		c4.9-4.9,12.8-4.8,17.7,0L1017,974.2C1021.8,979,1021.8,987,1017,991.8z"/>
</g>
</svg>
